%!PS-Adobe-2.0 EPSF-2.0
%%Title: ../figures/motiv2.eps
%%Creator: gnuplot 5.0 patchlevel 2
%%CreationDate: Tue Jan 17 14:02:12 2017
%%DocumentFonts: (atend)
%%BoundingBox: 50 50 410 251
%%EndComments
%%BeginProlog
/gnudict 256 dict def
gnudict begin
%
% The following true/false flags may be edited by hand if desired.
% The unit line width and grayscale image gamma correction may also be changed.
%
/Color true def
/Blacktext false def
/Solid false def
/Dashlength 1 def
/Landscape false def
/Level1 false def
/Level3 false def
/Rounded false def
/ClipToBoundingBox false def
/SuppressPDFMark false def
/TransparentPatterns false def
/gnulinewidth 5.000 def
/userlinewidth gnulinewidth def
/Gamma 1.0 def
/BackgroundColor {-1.000 -1.000 -1.000} def
%
/vshift -80 def
/dl1 {
  10.0 Dashlength userlinewidth gnulinewidth div mul mul mul
  Rounded { currentlinewidth 0.75 mul sub dup 0 le { pop 0.01 } if } if
} def
/dl2 {
  10.0 Dashlength userlinewidth gnulinewidth div mul mul mul
  Rounded { currentlinewidth 0.75 mul add } if
} def
/hpt_ 31.5 def
/vpt_ 31.5 def
/hpt hpt_ def
/vpt vpt_ def
/doclip {
  ClipToBoundingBox {
    newpath 50 50 moveto 410 50 lineto 410 251 lineto 50 251 lineto closepath
    clip
  } if
} def
%
% Gnuplot Prolog Version 5.1 (Oct 2015)
%
%/SuppressPDFMark true def
%
/M {moveto} bind def
/L {lineto} bind def
/R {rmoveto} bind def
/V {rlineto} bind def
/N {newpath moveto} bind def
/Z {closepath} bind def
/C {setrgbcolor} bind def
/f {rlineto fill} bind def
/g {setgray} bind def
/Gshow {show} def   % May be redefined later in the file to support UTF-8
/vpt2 vpt 2 mul def
/hpt2 hpt 2 mul def
/Lshow {currentpoint stroke M 0 vshift R 
	Blacktext {gsave 0 setgray textshow grestore} {textshow} ifelse} def
/Rshow {currentpoint stroke M dup stringwidth pop neg vshift R
	Blacktext {gsave 0 setgray textshow grestore} {textshow} ifelse} def
/Cshow {currentpoint stroke M dup stringwidth pop -2 div vshift R 
	Blacktext {gsave 0 setgray textshow grestore} {textshow} ifelse} def
/UP {dup vpt_ mul /vpt exch def hpt_ mul /hpt exch def
  /hpt2 hpt 2 mul def /vpt2 vpt 2 mul def} def
/DL {Color {setrgbcolor Solid {pop []} if 0 setdash}
 {pop pop pop 0 setgray Solid {pop []} if 0 setdash} ifelse} def
/BL {stroke userlinewidth 2 mul setlinewidth
	Rounded {1 setlinejoin 1 setlinecap} if} def
/AL {stroke userlinewidth 2 div setlinewidth
	Rounded {1 setlinejoin 1 setlinecap} if} def
/UL {dup gnulinewidth mul /userlinewidth exch def
	dup 1 lt {pop 1} if 10 mul /udl exch def} def
/PL {stroke userlinewidth setlinewidth
	Rounded {1 setlinejoin 1 setlinecap} if} def
3.8 setmiterlimit
% Classic Line colors (version 5.0)
/LCw {1 1 1} def
/LCb {0 0 0} def
/LCa {0 0 0} def
/LC0 {1 0 0} def
/LC1 {0 1 0} def
/LC2 {0 0 1} def
/LC3 {1 0 1} def
/LC4 {0 1 1} def
/LC5 {1 1 0} def
/LC6 {0 0 0} def
/LC7 {1 0.3 0} def
/LC8 {0.5 0.5 0.5} def
% Default dash patterns (version 5.0)
/LTB {BL [] LCb DL} def
/LTw {PL [] 1 setgray} def
/LTb {PL [] LCb DL} def
/LTa {AL [1 udl mul 2 udl mul] 0 setdash LCa setrgbcolor} def
/LT0 {PL [] LC0 DL} def
/LT1 {PL [2 dl1 3 dl2] LC1 DL} def
/LT2 {PL [1 dl1 1.5 dl2] LC2 DL} def
/LT3 {PL [6 dl1 2 dl2 1 dl1 2 dl2] LC3 DL} def
/LT4 {PL [1 dl1 2 dl2 6 dl1 2 dl2 1 dl1 2 dl2] LC4 DL} def
/LT5 {PL [4 dl1 2 dl2] LC5 DL} def
/LT6 {PL [1.5 dl1 1.5 dl2 1.5 dl1 1.5 dl2 1.5 dl1 6 dl2] LC6 DL} def
/LT7 {PL [3 dl1 3 dl2 1 dl1 3 dl2] LC7 DL} def
/LT8 {PL [2 dl1 2 dl2 2 dl1 6 dl2] LC8 DL} def
/SL {[] 0 setdash} def
/Pnt {stroke [] 0 setdash gsave 1 setlinecap M 0 0 V stroke grestore} def
/Dia {stroke [] 0 setdash 2 copy vpt add M
  hpt neg vpt neg V hpt vpt neg V
  hpt vpt V hpt neg vpt V closepath stroke
  Pnt} def
/Pls {stroke [] 0 setdash vpt sub M 0 vpt2 V
  currentpoint stroke M
  hpt neg vpt neg R hpt2 0 V stroke
 } def
/Box {stroke [] 0 setdash 2 copy exch hpt sub exch vpt add M
  0 vpt2 neg V hpt2 0 V 0 vpt2 V
  hpt2 neg 0 V closepath stroke
  Pnt} def
/Crs {stroke [] 0 setdash exch hpt sub exch vpt add M
  hpt2 vpt2 neg V currentpoint stroke M
  hpt2 neg 0 R hpt2 vpt2 V stroke} def
/TriU {stroke [] 0 setdash 2 copy vpt 1.12 mul add M
  hpt neg vpt -1.62 mul V
  hpt 2 mul 0 V
  hpt neg vpt 1.62 mul V closepath stroke
  Pnt} def
/Star {2 copy Pls Crs} def
/BoxF {stroke [] 0 setdash exch hpt sub exch vpt add M
  0 vpt2 neg V hpt2 0 V 0 vpt2 V
  hpt2 neg 0 V closepath fill} def
/TriUF {stroke [] 0 setdash vpt 1.12 mul add M
  hpt neg vpt -1.62 mul V
  hpt 2 mul 0 V
  hpt neg vpt 1.62 mul V closepath fill} def
/TriD {stroke [] 0 setdash 2 copy vpt 1.12 mul sub M
  hpt neg vpt 1.62 mul V
  hpt 2 mul 0 V
  hpt neg vpt -1.62 mul V closepath stroke
  Pnt} def
/TriDF {stroke [] 0 setdash vpt 1.12 mul sub M
  hpt neg vpt 1.62 mul V
  hpt 2 mul 0 V
  hpt neg vpt -1.62 mul V closepath fill} def
/DiaF {stroke [] 0 setdash vpt add M
  hpt neg vpt neg V hpt vpt neg V
  hpt vpt V hpt neg vpt V closepath fill} def
/Pent {stroke [] 0 setdash 2 copy gsave
  translate 0 hpt M 4 {72 rotate 0 hpt L} repeat
  closepath stroke grestore Pnt} def
/PentF {stroke [] 0 setdash gsave
  translate 0 hpt M 4 {72 rotate 0 hpt L} repeat
  closepath fill grestore} def
/Circle {stroke [] 0 setdash 2 copy
  hpt 0 360 arc stroke Pnt} def
/CircleF {stroke [] 0 setdash hpt 0 360 arc fill} def
/C0 {BL [] 0 setdash 2 copy moveto vpt 90 450 arc} bind def
/C1 {BL [] 0 setdash 2 copy moveto
	2 copy vpt 0 90 arc closepath fill
	vpt 0 360 arc closepath} bind def
/C2 {BL [] 0 setdash 2 copy moveto
	2 copy vpt 90 180 arc closepath fill
	vpt 0 360 arc closepath} bind def
/C3 {BL [] 0 setdash 2 copy moveto
	2 copy vpt 0 180 arc closepath fill
	vpt 0 360 arc closepath} bind def
/C4 {BL [] 0 setdash 2 copy moveto
	2 copy vpt 180 270 arc closepath fill
	vpt 0 360 arc closepath} bind def
/C5 {BL [] 0 setdash 2 copy moveto
	2 copy vpt 0 90 arc
	2 copy moveto
	2 copy vpt 180 270 arc closepath fill
	vpt 0 360 arc} bind def
/C6 {BL [] 0 setdash 2 copy moveto
	2 copy vpt 90 270 arc closepath fill
	vpt 0 360 arc closepath} bind def
/C7 {BL [] 0 setdash 2 copy moveto
	2 copy vpt 0 270 arc closepath fill
	vpt 0 360 arc closepath} bind def
/C8 {BL [] 0 setdash 2 copy moveto
	2 copy vpt 270 360 arc closepath fill
	vpt 0 360 arc closepath} bind def
/C9 {BL [] 0 setdash 2 copy moveto
	2 copy vpt 270 450 arc closepath fill
	vpt 0 360 arc closepath} bind def
/C10 {BL [] 0 setdash 2 copy 2 copy moveto vpt 270 360 arc closepath fill
	2 copy moveto
	2 copy vpt 90 180 arc closepath fill
	vpt 0 360 arc closepath} bind def
/C11 {BL [] 0 setdash 2 copy moveto
	2 copy vpt 0 180 arc closepath fill
	2 copy moveto
	2 copy vpt 270 360 arc closepath fill
	vpt 0 360 arc closepath} bind def
/C12 {BL [] 0 setdash 2 copy moveto
	2 copy vpt 180 360 arc closepath fill
	vpt 0 360 arc closepath} bind def
/C13 {BL [] 0 setdash 2 copy moveto
	2 copy vpt 0 90 arc closepath fill
	2 copy moveto
	2 copy vpt 180 360 arc closepath fill
	vpt 0 360 arc closepath} bind def
/C14 {BL [] 0 setdash 2 copy moveto
	2 copy vpt 90 360 arc closepath fill
	vpt 0 360 arc} bind def
/C15 {BL [] 0 setdash 2 copy vpt 0 360 arc closepath fill
	vpt 0 360 arc closepath} bind def
/Rec {newpath 4 2 roll moveto 1 index 0 rlineto 0 exch rlineto
	neg 0 rlineto closepath} bind def
/Square {dup Rec} bind def
/Bsquare {vpt sub exch vpt sub exch vpt2 Square} bind def
/S0 {BL [] 0 setdash 2 copy moveto 0 vpt rlineto BL Bsquare} bind def
/S1 {BL [] 0 setdash 2 copy vpt Square fill Bsquare} bind def
/S2 {BL [] 0 setdash 2 copy exch vpt sub exch vpt Square fill Bsquare} bind def
/S3 {BL [] 0 setdash 2 copy exch vpt sub exch vpt2 vpt Rec fill Bsquare} bind def
/S4 {BL [] 0 setdash 2 copy exch vpt sub exch vpt sub vpt Square fill Bsquare} bind def
/S5 {BL [] 0 setdash 2 copy 2 copy vpt Square fill
	exch vpt sub exch vpt sub vpt Square fill Bsquare} bind def
/S6 {BL [] 0 setdash 2 copy exch vpt sub exch vpt sub vpt vpt2 Rec fill Bsquare} bind def
/S7 {BL [] 0 setdash 2 copy exch vpt sub exch vpt sub vpt vpt2 Rec fill
	2 copy vpt Square fill Bsquare} bind def
/S8 {BL [] 0 setdash 2 copy vpt sub vpt Square fill Bsquare} bind def
/S9 {BL [] 0 setdash 2 copy vpt sub vpt vpt2 Rec fill Bsquare} bind def
/S10 {BL [] 0 setdash 2 copy vpt sub vpt Square fill 2 copy exch vpt sub exch vpt Square fill
	Bsquare} bind def
/S11 {BL [] 0 setdash 2 copy vpt sub vpt Square fill 2 copy exch vpt sub exch vpt2 vpt Rec fill
	Bsquare} bind def
/S12 {BL [] 0 setdash 2 copy exch vpt sub exch vpt sub vpt2 vpt Rec fill Bsquare} bind def
/S13 {BL [] 0 setdash 2 copy exch vpt sub exch vpt sub vpt2 vpt Rec fill
	2 copy vpt Square fill Bsquare} bind def
/S14 {BL [] 0 setdash 2 copy exch vpt sub exch vpt sub vpt2 vpt Rec fill
	2 copy exch vpt sub exch vpt Square fill Bsquare} bind def
/S15 {BL [] 0 setdash 2 copy Bsquare fill Bsquare} bind def
/D0 {gsave translate 45 rotate 0 0 S0 stroke grestore} bind def
/D1 {gsave translate 45 rotate 0 0 S1 stroke grestore} bind def
/D2 {gsave translate 45 rotate 0 0 S2 stroke grestore} bind def
/D3 {gsave translate 45 rotate 0 0 S3 stroke grestore} bind def
/D4 {gsave translate 45 rotate 0 0 S4 stroke grestore} bind def
/D5 {gsave translate 45 rotate 0 0 S5 stroke grestore} bind def
/D6 {gsave translate 45 rotate 0 0 S6 stroke grestore} bind def
/D7 {gsave translate 45 rotate 0 0 S7 stroke grestore} bind def
/D8 {gsave translate 45 rotate 0 0 S8 stroke grestore} bind def
/D9 {gsave translate 45 rotate 0 0 S9 stroke grestore} bind def
/D10 {gsave translate 45 rotate 0 0 S10 stroke grestore} bind def
/D11 {gsave translate 45 rotate 0 0 S11 stroke grestore} bind def
/D12 {gsave translate 45 rotate 0 0 S12 stroke grestore} bind def
/D13 {gsave translate 45 rotate 0 0 S13 stroke grestore} bind def
/D14 {gsave translate 45 rotate 0 0 S14 stroke grestore} bind def
/D15 {gsave translate 45 rotate 0 0 S15 stroke grestore} bind def
/DiaE {stroke [] 0 setdash vpt add M
  hpt neg vpt neg V hpt vpt neg V
  hpt vpt V hpt neg vpt V closepath stroke} def
/BoxE {stroke [] 0 setdash exch hpt sub exch vpt add M
  0 vpt2 neg V hpt2 0 V 0 vpt2 V
  hpt2 neg 0 V closepath stroke} def
/TriUE {stroke [] 0 setdash vpt 1.12 mul add M
  hpt neg vpt -1.62 mul V
  hpt 2 mul 0 V
  hpt neg vpt 1.62 mul V closepath stroke} def
/TriDE {stroke [] 0 setdash vpt 1.12 mul sub M
  hpt neg vpt 1.62 mul V
  hpt 2 mul 0 V
  hpt neg vpt -1.62 mul V closepath stroke} def
/PentE {stroke [] 0 setdash gsave
  translate 0 hpt M 4 {72 rotate 0 hpt L} repeat
  closepath stroke grestore} def
/CircE {stroke [] 0 setdash 
  hpt 0 360 arc stroke} def
/Opaque {gsave closepath 1 setgray fill grestore 0 setgray closepath} def
/DiaW {stroke [] 0 setdash vpt add M
  hpt neg vpt neg V hpt vpt neg V
  hpt vpt V hpt neg vpt V Opaque stroke} def
/BoxW {stroke [] 0 setdash exch hpt sub exch vpt add M
  0 vpt2 neg V hpt2 0 V 0 vpt2 V
  hpt2 neg 0 V Opaque stroke} def
/TriUW {stroke [] 0 setdash vpt 1.12 mul add M
  hpt neg vpt -1.62 mul V
  hpt 2 mul 0 V
  hpt neg vpt 1.62 mul V Opaque stroke} def
/TriDW {stroke [] 0 setdash vpt 1.12 mul sub M
  hpt neg vpt 1.62 mul V
  hpt 2 mul 0 V
  hpt neg vpt -1.62 mul V Opaque stroke} def
/PentW {stroke [] 0 setdash gsave
  translate 0 hpt M 4 {72 rotate 0 hpt L} repeat
  Opaque stroke grestore} def
/CircW {stroke [] 0 setdash 
  hpt 0 360 arc Opaque stroke} def
/BoxFill {gsave Rec 1 setgray fill grestore} def
/Density {
  /Fillden exch def
  currentrgbcolor
  /ColB exch def /ColG exch def /ColR exch def
  /ColR ColR Fillden mul Fillden sub 1 add def
  /ColG ColG Fillden mul Fillden sub 1 add def
  /ColB ColB Fillden mul Fillden sub 1 add def
  ColR ColG ColB setrgbcolor} def
/BoxColFill {gsave Rec PolyFill} def
/PolyFill {gsave Density fill grestore grestore} def
/h {rlineto rlineto rlineto gsave closepath fill grestore} bind def
%
% PostScript Level 1 Pattern Fill routine for rectangles
% Usage: x y w h s a XX PatternFill
%	x,y = lower left corner of box to be filled
%	w,h = width and height of box
%	  a = angle in degrees between lines and x-axis
%	 XX = 0/1 for no/yes cross-hatch
%
/PatternFill {gsave /PFa [ 9 2 roll ] def
  PFa 0 get PFa 2 get 2 div add PFa 1 get PFa 3 get 2 div add translate
  PFa 2 get -2 div PFa 3 get -2 div PFa 2 get PFa 3 get Rec
  TransparentPatterns {} {gsave 1 setgray fill grestore} ifelse
  clip
  currentlinewidth 0.5 mul setlinewidth
  /PFs PFa 2 get dup mul PFa 3 get dup mul add sqrt def
  0 0 M PFa 5 get rotate PFs -2 div dup translate
  0 1 PFs PFa 4 get div 1 add floor cvi
	{PFa 4 get mul 0 M 0 PFs V} for
  0 PFa 6 get ne {
	0 1 PFs PFa 4 get div 1 add floor cvi
	{PFa 4 get mul 0 2 1 roll M PFs 0 V} for
 } if
  stroke grestore} def
%
/languagelevel where
 {pop languagelevel} {1} ifelse
dup 2 lt
	{/InterpretLevel1 true def
	 /InterpretLevel3 false def}
	{/InterpretLevel1 Level1 def
	 2 gt
	    {/InterpretLevel3 Level3 def}
	    {/InterpretLevel3 false def}
	 ifelse }
 ifelse
%
% PostScript level 2 pattern fill definitions
%
/Level2PatternFill {
/Tile8x8 {/PaintType 2 /PatternType 1 /TilingType 1 /BBox [0 0 8 8] /XStep 8 /YStep 8}
	bind def
/KeepColor {currentrgbcolor [/Pattern /DeviceRGB] setcolorspace} bind def
<< Tile8x8
 /PaintProc {0.5 setlinewidth pop 0 0 M 8 8 L 0 8 M 8 0 L stroke} 
>> matrix makepattern
/Pat1 exch def
<< Tile8x8
 /PaintProc {0.5 setlinewidth pop 0 0 M 8 8 L 0 8 M 8 0 L stroke
	0 4 M 4 8 L 8 4 L 4 0 L 0 4 L stroke}
>> matrix makepattern
/Pat2 exch def
<< Tile8x8
 /PaintProc {0.5 setlinewidth pop 0 0 M 0 8 L
	8 8 L 8 0 L 0 0 L fill}
>> matrix makepattern
/Pat3 exch def
<< Tile8x8
 /PaintProc {0.5 setlinewidth pop -4 8 M 8 -4 L
	0 12 M 12 0 L stroke}
>> matrix makepattern
/Pat4 exch def
<< Tile8x8
 /PaintProc {0.5 setlinewidth pop -4 0 M 8 12 L
	0 -4 M 12 8 L stroke}
>> matrix makepattern
/Pat5 exch def
<< Tile8x8
 /PaintProc {0.5 setlinewidth pop -2 8 M 4 -4 L
	0 12 M 8 -4 L 4 12 M 10 0 L stroke}
>> matrix makepattern
/Pat6 exch def
<< Tile8x8
 /PaintProc {0.5 setlinewidth pop -2 0 M 4 12 L
	0 -4 M 8 12 L 4 -4 M 10 8 L stroke}
>> matrix makepattern
/Pat7 exch def
<< Tile8x8
 /PaintProc {0.5 setlinewidth pop 8 -2 M -4 4 L
	12 0 M -4 8 L 12 4 M 0 10 L stroke}
>> matrix makepattern
/Pat8 exch def
<< Tile8x8
 /PaintProc {0.5 setlinewidth pop 0 -2 M 12 4 L
	-4 0 M 12 8 L -4 4 M 8 10 L stroke}
>> matrix makepattern
/Pat9 exch def
/Pattern1 {PatternBgnd KeepColor Pat1 setpattern} bind def
/Pattern2 {PatternBgnd KeepColor Pat2 setpattern} bind def
/Pattern3 {PatternBgnd KeepColor Pat3 setpattern} bind def
/Pattern4 {PatternBgnd KeepColor Landscape {Pat5} {Pat4} ifelse setpattern} bind def
/Pattern5 {PatternBgnd KeepColor Landscape {Pat4} {Pat5} ifelse setpattern} bind def
/Pattern6 {PatternBgnd KeepColor Landscape {Pat9} {Pat6} ifelse setpattern} bind def
/Pattern7 {PatternBgnd KeepColor Landscape {Pat8} {Pat7} ifelse setpattern} bind def
} def
%
%
%End of PostScript Level 2 code
%
/PatternBgnd {
  TransparentPatterns {} {gsave 1 setgray fill grestore} ifelse
} def
%
% Substitute for Level 2 pattern fill codes with
% grayscale if Level 2 support is not selected.
%
/Level1PatternFill {
/Pattern1 {0.250 Density} bind def
/Pattern2 {0.500 Density} bind def
/Pattern3 {0.750 Density} bind def
/Pattern4 {0.125 Density} bind def
/Pattern5 {0.375 Density} bind def
/Pattern6 {0.625 Density} bind def
/Pattern7 {0.875 Density} bind def
} def
%
% Now test for support of Level 2 code
%
Level1 {Level1PatternFill} {Level2PatternFill} ifelse
%
/Symbol-Oblique /Symbol findfont [1 0 .167 1 0 0] makefont
dup length dict begin {1 index /FID eq {pop pop} {def} ifelse} forall
currentdict end definefont pop
%
/MFshow {
   { dup 5 get 3 ge
     { 5 get 3 eq {gsave} {grestore} ifelse }
     {dup dup 0 get findfont exch 1 get scalefont setfont
     [ currentpoint ] exch dup 2 get 0 exch R dup 5 get 2 ne {dup dup 6
     get exch 4 get {textshow} {stringwidth pop 0 R} ifelse }if dup 5 get 0 eq
     {dup 3 get {2 get neg 0 exch R pop} {pop aload pop M} ifelse} {dup 5
     get 1 eq {dup 2 get exch dup 3 get exch 6 get stringwidth pop -2 div
     dup 0 R} {dup 6 get stringwidth pop -2 div 0 R 6 get
     textshow 2 index {aload pop M neg 3 -1 roll neg R pop pop} {pop pop pop
     pop aload pop M} ifelse }ifelse }ifelse }
     ifelse }
   forall} def
/Gswidth {dup type /stringtype eq {stringwidth} {pop (n) stringwidth} ifelse} def
/MFwidth {0 exch { dup 5 get 3 ge { 5 get 3 eq { 0 } { pop } ifelse }
 {dup 3 get{dup dup 0 get findfont exch 1 get scalefont setfont
     6 get Gswidth pop add} {pop} ifelse} ifelse} forall} def
/MLshow { currentpoint stroke M
  0 exch R
  Blacktext {gsave 0 setgray MFshow grestore} {MFshow} ifelse } bind def
/MRshow { currentpoint stroke M
  exch dup MFwidth neg 3 -1 roll R
  Blacktext {gsave 0 setgray MFshow grestore} {MFshow} ifelse } bind def
/MCshow { currentpoint stroke M
  exch dup MFwidth -2 div 3 -1 roll R
  Blacktext {gsave 0 setgray MFshow grestore} {MFshow} ifelse } bind def
/XYsave    { [( ) 1 2 true false 3 ()] } bind def
/XYrestore { [( ) 1 2 true false 4 ()] } bind def
Level1 SuppressPDFMark or 
{} {
/SDict 10 dict def
systemdict /pdfmark known not {
  userdict /pdfmark systemdict /cleartomark get put
} if
SDict begin [
  /Title (../figures/motiv2.eps)
  /Subject (gnuplot plot)
  /Creator (gnuplot 5.0 patchlevel 2)
  /Author (swkim)
%  /Producer (gnuplot)
%  /Keywords ()
  /CreationDate (Tue Jan 17 14:02:12 2017)
  /DOCINFO pdfmark
end
} ifelse
%
% Support for boxed text - Ethan A Merritt May 2005
%
/InitTextBox { userdict /TBy2 3 -1 roll put userdict /TBx2 3 -1 roll put
           userdict /TBy1 3 -1 roll put userdict /TBx1 3 -1 roll put
	   /Boxing true def } def
/ExtendTextBox { Boxing
    { gsave dup false charpath pathbbox
      dup TBy2 gt {userdict /TBy2 3 -1 roll put} {pop} ifelse
      dup TBx2 gt {userdict /TBx2 3 -1 roll put} {pop} ifelse
      dup TBy1 lt {userdict /TBy1 3 -1 roll put} {pop} ifelse
      dup TBx1 lt {userdict /TBx1 3 -1 roll put} {pop} ifelse
      grestore } if } def
/PopTextBox { newpath TBx1 TBxmargin sub TBy1 TBymargin sub M
               TBx1 TBxmargin sub TBy2 TBymargin add L
	       TBx2 TBxmargin add TBy2 TBymargin add L
	       TBx2 TBxmargin add TBy1 TBymargin sub L closepath } def
/DrawTextBox { PopTextBox stroke /Boxing false def} def
/FillTextBox { gsave PopTextBox 1 1 1 setrgbcolor fill grestore /Boxing false def} def
0 0 0 0 InitTextBox
/TBxmargin 20 def
/TBymargin 20 def
/Boxing false def
/textshow { ExtendTextBox Gshow } def
%
% redundant definitions for compatibility with prologue.ps older than 5.0.2
/LTB {BL [] LCb DL} def
/LTb {PL [] LCb DL} def
end
%%EndProlog
%%Page: 1 1
gnudict begin
gsave
doclip
50 50 translate
0.050 0.050 scale
0 setgray
newpath
(Times-Roman) findfont 240 scalefont setfont
BackgroundColor 0 lt 3 1 roll 0 lt exch 0 lt or or not {BackgroundColor C 1.000 0 0 7200.00 4032.00 BoxColFill} if
1.000 UL
LTb
LCb setrgbcolor
888 768 M
63 0 V
stroke
744 768 M
[ [(Times-Roman) 240.0 0.0 true true 0 ( 0)]
] -80.0 MRshow
1.000 UL
LTb
LCb setrgbcolor
888 1224 M
63 0 V
stroke
744 1224 M
[ [(Times-Roman) 240.0 0.0 true true 0 ( 5)]
] -80.0 MRshow
1.000 UL
LTb
LCb setrgbcolor
888 1680 M
63 0 V
stroke
744 1680 M
[ [(Times-Roman) 240.0 0.0 true true 0 ( 10)]
] -80.0 MRshow
1.000 UL
LTb
LCb setrgbcolor
888 2136 M
63 0 V
stroke
744 2136 M
[ [(Times-Roman) 240.0 0.0 true true 0 ( 15)]
] -80.0 MRshow
1.000 UL
LTb
LCb setrgbcolor
888 2591 M
63 0 V
stroke
744 2591 M
[ [(Times-Roman) 240.0 0.0 true true 0 ( 20)]
] -80.0 MRshow
1.000 UL
LTb
LCb setrgbcolor
888 3047 M
63 0 V
stroke
744 3047 M
[ [(Times-Roman) 240.0 0.0 true true 0 ( 25)]
] -80.0 MRshow
1.000 UL
LTb
LCb setrgbcolor
888 3503 M
63 0 V
stroke
744 3503 M
[ [(Times-Roman) 240.0 0.0 true true 0 ( 30)]
] -80.0 MRshow
1.000 UL
LTb
LCb setrgbcolor
888 768 M
0 63 V
stroke
888 528 M
[ [(Times-Roman) 240.0 0.0 true true 0 ( 0)]
] -80.0 MCshow
1.000 UL
LTb
LCb setrgbcolor
1868 768 M
0 63 V
stroke
1868 528 M
[ [(Times-Roman) 240.0 0.0 true true 0 ( 5)]
] -80.0 MCshow
1.000 UL
LTb
LCb setrgbcolor
2848 768 M
0 63 V
stroke
2848 528 M
[ [(Times-Roman) 240.0 0.0 true true 0 ( 10)]
] -80.0 MCshow
1.000 UL
LTb
LCb setrgbcolor
3828 768 M
0 63 V
stroke
3828 528 M
[ [(Times-Roman) 240.0 0.0 true true 0 ( 15)]
] -80.0 MCshow
1.000 UL
LTb
LCb setrgbcolor
4807 768 M
0 63 V
stroke
4807 528 M
[ [(Times-Roman) 240.0 0.0 true true 0 ( 20)]
] -80.0 MCshow
1.000 UL
LTb
LCb setrgbcolor
5787 768 M
0 63 V
stroke
5787 528 M
[ [(Times-Roman) 240.0 0.0 true true 0 ( 25)]
] -80.0 MCshow
1.000 UL
LTb
LCb setrgbcolor
6767 768 M
0 63 V
stroke
6767 528 M
[ [(Times-Roman) 240.0 0.0 true true 0 ( 30)]
] -80.0 MCshow
1.000 UL
LTb
LCb setrgbcolor
1.000 UL
LTB
LCb setrgbcolor
888 3503 N
888 768 L
5879 0 V
0 2735 V
-5879 0 V
Z stroke
1.000 UP
1.000 UL
LTb
LCb setrgbcolor
LCb setrgbcolor
192 2135 M
currentpoint gsave translate -270 rotate 0 0 moveto
[ [(Times-Roman) 240.0 0.0 true true 0 (Operation thput \(Kops/sec\))]
] -80.0 MCshow
grestore
LTb
LCb setrgbcolor
3827 168 M
[ [(Times-Roman) 240.0 0.0 true true 0 (Elapsed time \(min\))]
] -80.0 MCshow
LTb
% Begin plot #1
4.000 UL
LTb
0.75 0.75 0.75 C LCb setrgbcolor
1826 3849 M
[ [(Times-Roman) 240.0 0.0 true true 0 (CFQ-IDLE)]
] -80.0 MRshow
4.000 UL
LTb
0.75 0.75 0.75 C 1970 3849 M
495 0 V
921 2859 M
32 424 V
33 8 V
33 -52 V
32 -27 V
33 -323 V
1117 768 L
32 0 V
33 0 V
33 486 V
32 840 V
33 897 V
33 -301 V
1345 768 L
33 1684 V
33 797 V
32 21 V
33 -141 V
33 79 V
32 -25 V
33 4 V
33 71 V
32 -159 V
33 -1475 V
33 -856 V
32 0 V
33 0 V
33 0 V
32 0 V
33 0 V
32 287 V
33 958 V
1966 768 L
32 0 V
33 0 V
33 1 V
32 2471 V
33 -3 V
33 11 V
32 19 V
33 12 V
33 -63 V
32 -231 V
33 -1274 V
33 -943 V
32 0 V
33 0 V
33 0 V
32 0 V
33 517 V
33 1142 V
32 -740 V
33 -919 V
33 0 V
32 0 V
33 1286 V
33 1258 V
32 -28 V
33 -461 V
33 472 V
32 -327 V
33 142 V
33 -1301 V
2978 768 L
33 0 V
33 0 V
32 0 V
33 0 V
33 0 V
32 0 V
33 1505 V
3240 768 L
32 0 V
33 1193 V
33 1241 V
32 -269 V
33 -60 V
33 297 V
32 56 V
33 -54 V
33 121 V
3566 973 L
33 -205 V
33 0 V
32 0 V
33 0 V
33 0 V
32 0 V
33 0 V
33 1474 V
32 -1199 V
33 -158 V
32 82 V
33 181 V
33 906 V
4023 768 L
33 0 V
33 0 V
32 0 V
33 1375 V
33 1097 V
32 17 V
33 0 V
33 -44 V
32 -53 V
33 38 V
33 -461 V
4415 768 L
33 0 V
33 0 V
32 0 V
33 0 V
33 0 V
32 0 V
33 0 V
33 1275 V
4709 783 L
33 131 V
33 37 V
32 993 V
33 -787 V
33 -389 V
32 0 V
33 0 V
33 1303 V
32 1227 V
33 -168 V
33 -4 V
32 110 V
33 -201 V
33 0 V
32 -193 V
33 -318 V
5265 768 L
32 0 V
33 0 V
33 0 V
32 0 V
33 0 V
33 0 V
32 0 V
33 180 V
33 694 V
32 -59 V
33 -815 V
33 0 V
32 1 V
33 1963 V
33 -473 V
32 969 V
33 -36 V
32 -28 V
33 30 V
33 60 V
32 -1838 V
33 -648 V
33 0 V
32 0 V
33 0 V
33 0 V
32 0 V
33 0 V
33 731 V
32 695 V
6277 768 L
33 0 V
32 0 V
33 808 V
33 1632 V
32 68 V
33 -134 V
33 68 V
32 -9 V
33 -290 V
33 89 V
32 -1894 V
33 -338 V
33 0 V
32 0 V
33 0 V
% End plot #1
% Begin plot #2
stroke
3.000 UL
LTb
0.00 0.00 0.00 C LCb setrgbcolor
3905 3849 M
[ [(Times-Roman) 240.0 0.0 true true 0 (SPLIT-A)]
] -80.0 MRshow
3.000 UL
LTb
0.00 0.00 0.00 C 4049 3849 M
495 0 V
921 1127 M
32 865 V
33 59 V
33 170 V
32 -48 V
33 -410 V
33 -615 V
32 461 V
33 289 V
33 -582 V
32 -230 V
33 210 V
33 207 V
32 48 V
33 669 V
33 -826 V
32 495 V
33 400 V
33 -728 V
32 312 V
33 -62 V
33 -756 V
32 -79 V
33 1046 V
33 -379 V
32 -98 V
33 -14 V
33 -141 V
32 -509 V
33 250 V
32 896 V
33 -424 V
33 582 V
32 -1035 V
33 720 V
33 -744 V
32 280 V
33 612 V
33 -328 V
32 -181 V
33 585 V
33 -368 V
32 -958 V
33 0 V
33 0 V
32 0 V
33 0 V
33 0 V
32 331 V
33 728 V
33 575 V
32 -372 V
33 -679 V
33 71 V
32 24 V
33 296 V
33 -357 V
32 -230 V
33 271 V
33 520 V
32 382 V
33 -163 V
2946 957 L
32 84 V
33 -212 V
33 1076 V
32 -237 V
33 -124 V
33 24 V
32 -349 V
33 -237 V
33 156 V
32 450 V
33 -30 V
33 395 V
32 -669 V
33 -237 V
33 -55 V
32 -182 V
33 55 V
33 0 V
32 265 V
33 -126 V
33 283 V
32 130 V
33 20 V
33 -65 V
32 103 V
33 1997 V
33 -2011 V
32 -394 V
33 -232 V
32 584 V
33 785 V
33 278 V
32 -799 V
33 -171 V
33 -27 V
32 909 V
33 -984 V
33 -5 V
32 -39 V
33 -98 V
33 608 V
32 -307 V
33 -801 V
33 0 V
32 2085 V
33 -420 V
33 -576 V
32 -681 V
33 -145 V
33 -46 V
32 -19 V
33 20 V
33 71 V
32 -18 V
33 1407 V
33 -701 V
32 -271 V
33 529 V
33 247 V
32 200 V
33 -264 V
33 676 V
32 -986 V
33 -123 V
33 -318 V
32 -56 V
33 99 V
33 -123 V
32 113 V
33 41 V
33 -67 V
32 94 V
33 23 V
33 62 V
32 -29 V
33 -178 V
33 235 V
32 -383 V
33 -386 V
33 1846 V
32 -654 V
33 295 V
33 -898 V
32 -116 V
33 192 V
33 -26 V
32 68 V
33 -57 V
32 -566 V
33 77 V
33 942 V
32 144 V
33 -130 V
33 611 V
32 -1246 V
33 -447 V
33 160 V
32 429 V
33 -399 V
33 -90 V
32 852 V
33 176 V
33 -619 V
32 22 V
stroke 6342 1446 M
33 -70 V
33 -422 V
32 152 V
33 61 V
33 -93 V
32 489 V
33 -636 V
33 472 V
32 -433 V
33 589 V
33 -28 V
32 -11 V
33 -80 V
% End plot #2
% Begin plot #3
stroke
5.000 UL
LTb
LT2
1.00 0.00 0.00 C LCb setrgbcolor
5984 3849 M
[ [(Times-Roman) 240.0 0.0 true true 0 (SPLIT-D)]
] -80.0 MRshow
5.000 UL
LTb
LT2
1.00 0.00 0.00 C 6128 3849 M
495 0 V
921 953 M
32 1369 V
33 -989 V
33 214 V
32 -84 V
33 -203 V
33 59 V
32 -249 V
33 303 V
33 329 V
32 -240 V
33 313 V
33 -452 V
32 251 V
33 293 V
33 -239 V
32 87 V
33 -574 V
33 651 V
32 138 V
33 -339 V
33 162 V
32 -66 V
33 223 V
33 -346 V
32 -129 V
33 20 V
33 -74 V
32 486 V
33 -265 V
32 40 V
33 -303 V
33 0 V
32 -90 V
33 -286 V
33 672 V
32 -294 V
33 310 V
33 -527 V
32 337 V
33 1086 V
33 -1380 V
32 381 V
33 -110 V
33 -333 V
32 154 V
33 310 V
33 39 V
32 -560 V
33 781 V
33 301 V
32 -823 V
33 36 V
33 -35 V
32 280 V
33 -121 V
33 -286 V
32 665 V
33 -604 V
33 414 V
32 87 V
33 -299 V
33 377 V
32 -527 V
33 242 V
33 532 V
32 -853 V
33 -74 V
33 256 V
32 -331 V
33 405 V
33 458 V
32 -196 V
33 -462 V
33 170 V
32 -80 V
33 380 V
33 58 V
32 -595 V
33 145 V
33 377 V
32 -69 V
33 -416 V
33 281 V
32 140 V
33 -25 V
33 -159 V
32 19 V
33 -52 V
33 -115 V
32 159 V
33 -404 V
32 348 V
33 -207 V
33 466 V
32 787 V
33 -1051 V
33 -79 V
32 76 V
33 -238 V
33 -172 V
32 217 V
33 -108 V
stroke 4252 1124 M
33 12 V
32 534 V
33 190 V
33 -381 V
32 -4 V
33 -201 V
33 441 V
32 -214 V
33 -127 V
33 354 V
32 -230 V
33 468 V
33 -566 V
32 -73 V
33 605 V
33 -432 V
32 -183 V
33 525 V
33 -402 V
32 -230 V
33 -167 V
33 627 V
32 65 V
33 -71 V
33 -569 V
32 -36 V
33 198 V
33 667 V
32 156 V
33 -933 V
33 487 V
32 -169 V
33 -1 V
33 55 V
32 -468 V
33 133 V
33 216 V
32 -80 V
33 495 V
33 -183 V
32 174 V
33 -33 V
33 71 V
32 -159 V
33 -418 V
33 111 V
32 -274 V
33 285 V
32 312 V
33 -30 V
33 62 V
32 -532 V
33 640 V
33 -427 V
32 -166 V
33 203 V
33 203 V
32 -155 V
33 -184 V
33 194 V
32 -62 V
33 824 V
33 -813 V
32 4 V
33 -58 V
33 -129 V
32 -49 V
33 -155 V
33 333 V
32 -365 V
33 571 V
33 -253 V
32 -589 V
33 0 V
33 0 V
32 244 V
33 -197 V
% End plot #3
stroke
2.000 UL
LTb
LCb setrgbcolor
1.000 UL
LTB
LCb setrgbcolor
888 3503 N
888 768 L
5879 0 V
0 2735 V
-5879 0 V
Z stroke
1.000 UP
1.000 UL
LTb
LCb setrgbcolor
stroke
grestore
end
showpage
%%Trailer
%%DocumentFonts: Times-Roman
